[
  {
    "name": "Keycron K2",
    "price": 3500.0,
    "stock": 41,
    "shelf": "A10"
  },
  {
    "name": "Logitech Mx Masters Vertical",
    "price": 1500.0,
    "stock": 60,
    "shelf": "A9"
  },
  {
    "name": "Logitech Mx Anywhere 3",
    "price": 1200.0,
    "stock": 76,
    "shelf": "A08"
  }
]